<svg width="80" height="80" viewBox="0 0 80 80" fill="none" xmlns="http://www.w3.org/2000/svg">
<g clip-path="url(#clip0)">
<g clip-path="url(#clip1)">
<g clip-path="url(#clip2)">
<path fill-rule="evenodd" clip-rule="evenodd" d="M29.5926 43.7264C30.465 44.1629 31.4247 44.5121 32.3843 44.7739C34.0419 45.2104 35.6995 45.4723 37.2699 45.4723C38.753 45.4723 40.3233 45.2104 41.7192 44.8612C42.8533 44.4248 43.9002 43.9883 44.8599 43.5518C44.6854 42.6788 44.5982 41.544 44.5109 40.4965L44.2492 40.671H44.162C43.9002 40.8456 43.7257 41.0202 43.464 41.1075L43.2895 41.1948C43.2023 41.2821 43.1151 41.3694 43.0278 41.3694L42.7661 41.544H42.6788C42.5044 41.6313 42.4171 41.7186 42.2426 41.8059H42.1554C42.0682 41.8932 41.8937 41.8932 41.8064 41.9805H41.7192C41.632 41.9805 41.5447 42.0678 41.4575 42.0678H41.3702C41.0213 42.2424 40.7595 42.417 40.4106 42.417H40.3233H40.2361H40.1488H40.0616H39.9744H39.8871H39.7999H39.7126H39.6254H39.5382H39.4509H39.3637H39.2764H39.1892H39.1019H39.0147H38.9275H38.8402H38.753H38.6657H38.5785H38.4913H38.404H38.3168H38.1423H38.055H37.9678H37.8806C37.7933 42.417 37.7061 42.417 37.6188 42.417H37.5316H37.4444H37.2699H37.1826H37.0954H36.9209H36.8337H36.7464H36.6592H36.5719H36.4847H36.3975H36.3102H36.223H36.1357H36.0485H35.9613H35.874C34.4781 42.6788 33.1695 42.2424 31.8609 41.6313H31.7737C31.163 41.2821 30.5523 40.8456 29.8543 40.4965C29.8543 41.6313 29.6799 42.7661 29.5926 43.7264ZM71.7303 58.9158C72.7772 58.9158 73.6496 59.7888 73.6496 60.8363C73.6496 61.8839 72.7772 62.7568 71.7303 62.7568H62.1337V72.3593C62.1337 73.4069 61.2613 74.2798 60.2144 74.2798C59.1675 74.2798 58.2951 73.4069 58.2951 72.3593V62.7568H48.6985C47.6516 62.7568 46.7792 61.8839 46.7792 60.8363C46.7792 59.7888 47.6516 58.9158 48.6985 58.9158H58.2951V49.3133C58.2951 48.2658 59.1675 47.3928 60.2144 47.3928C61.2613 47.3928 62.1337 48.2658 62.1337 49.3133V58.9158H71.7303ZM60.2144 45.8215C57.4227 45.8215 54.8054 46.6071 52.6244 47.9166C52.5371 47.9166 52.5371 48.0039 52.4499 48.0039C51.403 48.6149 50.4433 49.4006 49.5709 50.1863C46.8664 52.8924 45.2089 56.6461 45.2089 60.749C45.2089 64.0663 46.343 67.2089 48.1751 69.6532C48.1751 69.7405 48.2623 69.8278 48.3495 69.9151C48.6985 70.4388 49.1347 70.9626 49.5709 71.3991C52.2754 74.1052 56.0268 75.7639 60.1272 75.7639C64.2275 75.7639 67.9789 74.1052 70.6834 71.3991C73.3879 68.6929 75.0455 64.9392 75.0455 60.8363C75.0455 56.7334 73.3879 52.9797 70.6834 50.2736C68.0661 47.4801 64.3147 45.8215 60.2144 45.8215ZM60.2144 42.0678C65.3616 42.0678 70.0727 44.1629 73.4751 47.5674C76.8775 50.9719 78.9713 55.5986 78.9713 60.8363C78.9713 65.9868 76.8775 70.7007 73.4751 74.1052C69.9854 77.4225 65.3616 79.5176 60.1272 79.5176C54.9799 79.5176 50.2689 77.4225 46.8664 74.018C46.5175 73.6688 46.1685 73.2323 45.8195 72.7958H13.3657C11.7081 72.7958 10.225 72.0975 9.09086 71.0499C7.95672 69.9151 7.25879 68.431 7.25879 66.7724V57.6937C7.25879 54.2019 9.09086 51.3211 12.0571 49.0514C15.0233 46.7817 19.2981 45.2104 24.0964 44.1629L25.9285 42.9407C26.103 41.8932 26.1902 39.7981 26.2774 38.1395L26.3647 37.1792C26.103 36.83 25.8412 36.4809 25.4923 36.219C23.9219 34.2985 22.7005 32.0288 21.8281 29.5845C20.9557 27.3148 20.5195 24.8706 20.5195 22.4263V22.339C20.5195 22.2517 20.5195 22.1644 20.5195 22.0771V21.3787C20.5195 19.8947 20.5195 19.109 20.5195 18.3234C20.2578 8.02251 20.0833 0.0786133 37.1826 0.0786133C54.282 0.0786133 54.1075 8.02251 53.933 18.4107C53.933 19.1963 53.933 19.982 53.933 21.466V22.1644C53.933 22.2517 53.933 22.339 53.933 22.4263V22.5136C53.933 24.8706 53.4096 27.3148 52.6244 29.6718C51.752 32.0288 50.4433 34.2985 48.9602 36.219C48.6985 36.5682 48.3495 36.9173 48.0878 37.2665C48.0878 37.6157 48.1751 37.8776 48.1751 38.2268C48.2623 39.8854 48.3495 41.9805 48.524 43.028L50.3561 44.1629L50.9668 44.3375L51.2285 44.4248C53.933 42.9407 56.8992 42.0678 60.2144 42.0678ZM43.3768 69.0421C42.1554 66.5978 41.4575 63.7171 41.4575 60.749C41.4575 55.5986 43.5513 50.8846 46.9537 47.4801C47.2154 47.3055 47.3899 47.1309 47.6516 46.869L47.1282 46.5199C45.8195 47.3055 44.2492 47.9166 42.6788 48.3531C40.934 48.8768 39.1019 49.1387 37.1826 49.1387C35.3506 49.1387 33.2568 48.8768 31.3375 48.3531C29.8543 47.9166 28.4585 47.3928 27.1499 46.6944L25.8412 47.5674C25.6668 47.6547 25.405 47.742 25.1433 47.8293C20.694 48.7022 16.8554 50.1863 14.3254 52.1068C12.2316 53.6781 11.0102 55.5113 11.0102 57.6937V66.6851C11.0102 67.2962 11.2719 67.9073 11.7081 68.3437C12.1443 68.7802 12.6678 69.0421 13.3657 69.0421H43.3768ZM29.5054 35.2587L29.5926 35.346C29.9416 35.6079 30.2033 35.8698 30.465 36.1317L30.5523 36.219H30.6395H30.7268L30.814 36.3936V36.4809C31.7737 37.2665 32.6461 37.7903 33.4312 38.2268H33.5185C34.6526 38.7505 35.7868 39.0997 36.9209 39.187H37.0082H37.0954H37.1826H37.2699H37.4444H37.6188H37.7933C38.9275 39.0997 40.0616 38.6633 41.1957 38.0522L41.3702 37.9649H41.4575H41.5447C41.8937 37.703 41.9809 37.703 42.0682 37.6157L42.1554 37.5284H42.2426L42.5044 37.3538C43.7257 36.4809 44.9471 35.346 45.994 33.9493C47.3026 32.2907 48.3495 30.3702 49.1347 28.3624C49.6582 26.9656 50.0071 25.5689 50.0944 24.1722L49.0475 20.855V20.6804C48.7858 19.8947 48.6985 19.1963 48.6113 18.498C48.524 17.8869 48.524 17.1885 48.524 16.5775C48.524 15.8791 48.524 15.268 48.3495 14.657C48.3495 14.2205 48.1751 13.8713 48.0006 13.5221C47.6516 13.1729 47.2154 12.9984 46.7792 12.9984C45.994 12.9984 44.8599 13.3475 43.6385 13.6094C41.632 14.1332 39.6254 14.7443 37.1826 14.7443C34.8271 14.7443 32.8206 14.2205 30.9012 13.6967C30.814 13.6967 30.7268 13.6967 30.6395 13.6094C29.5054 13.2602 28.4585 12.9984 27.6733 12.9984C27.1499 12.9984 26.7136 13.0857 26.4519 13.5221C26.2774 13.8713 26.103 14.2205 26.0157 14.657C25.9285 15.1807 25.9285 15.8791 25.9285 16.5775C25.9285 17.2758 25.9285 17.8869 25.8412 18.498C25.754 19.1963 25.6668 19.8947 25.405 20.6804L24.3581 24.1722C24.5326 25.5689 24.8816 27.0529 25.3178 28.3624C26.0157 30.3702 27.1499 32.2907 28.4585 33.9493C28.8074 34.3858 29.1564 34.8222 29.5054 35.2587ZM24.7943 10.0303C25.6668 9.50653 26.6264 9.24465 27.6733 9.24465C28.9819 9.24465 30.2906 9.59383 31.6864 9.94301H31.7737C33.4312 10.3795 35.2633 10.9033 37.1826 10.9033C39.1019 10.9033 40.934 10.3795 42.5916 9.94301C43.9875 9.59383 45.3833 9.15735 46.692 9.15735C47.7389 9.15735 48.7858 9.33194 49.6582 9.94301C48.524 6.2766 45.4706 3.83232 37.1826 3.83232C28.9819 3.83232 25.9285 6.2766 24.7943 10.0303Z" fill="#212121"/>
</g>
</g>
</g>
<defs>
<clipPath id="clip0">
<rect width="80" height="80" fill="white"/>
</clipPath>
<clipPath id="clip1">
<rect width="89.8572" height="80.7412" fill="white" transform="translate(-1.85718 0.0786133)"/>
</clipPath>
<clipPath id="clip2">
<rect width="71.6253" height="79.439" fill="white" transform="translate(7.25879 0.0786133)"/>
</clipPath>
</defs>
</svg>
