<svg width="40" height="40" viewBox="0 0 40 40" fill="none" xmlns="http://www.w3.org/2000/svg">
<path fill-rule="evenodd" clip-rule="evenodd" d="M11.9449 0H28.0984C28.9213 0 29.6575 0.353341 30.1772 0.971687C30.6968 1.54587 31 2.34088 31 3.18007V4.85844V32.1099V35.8199C31 36.6591 30.6968 37.4541 30.1772 38.0283C29.6575 38.6467 28.9213 39 28.0984 39H11.9449C11.122 39 10.3858 38.6467 9.86614 38.0283C9.30315 37.4983 9 36.7033 9 35.8199V32.1099V4.85844V3.18007C9 2.34088 9.30315 1.54587 9.82283 0.971687C10.3425 0.353341 11.122 0 11.9449 0ZM22.3819 11.7044H25.1102C25.6299 11.7044 26.063 11.2627 26.063 10.7327C26.063 10.2027 25.6299 9.76104 25.1102 9.76104H22.3819C21.8622 9.76104 21.4291 10.2027 21.4291 10.7327C21.4291 11.3069 21.8622 11.7044 22.3819 11.7044ZM22.3819 26.3681H25.1102C25.6299 26.3681 26.063 25.9264 26.063 25.3964C26.063 24.8664 25.6299 24.4247 25.1102 24.4247H22.3819C21.8622 24.4247 21.4291 24.8664 21.4291 25.3964C21.4291 25.9264 21.8622 26.3681 22.3819 26.3681ZM22.3819 19.0362H25.1102C25.6299 19.0362 26.063 18.5946 26.063 18.0646C26.063 17.5345 25.6299 17.0929 25.1102 17.0929H22.3819C21.8622 17.0929 21.4291 17.5345 21.4291 18.0646C21.4291 18.5946 21.8622 19.0362 22.3819 19.0362ZM14.8898 11.7044H17.6614C18.1811 11.7044 18.6142 11.2627 18.6142 10.7327C18.6142 10.2027 18.1811 9.76104 17.6614 9.76104H14.8898C14.3701 9.76104 13.937 10.2027 13.937 10.7327C13.9803 11.3069 14.4134 11.7044 14.8898 11.7044ZM14.8898 26.3681H17.6614C18.1811 26.3681 18.6142 25.9264 18.6142 25.3964C18.6142 24.8664 18.1811 24.4247 17.6614 24.4247H14.8898C14.3701 24.4247 13.937 24.8664 13.937 25.3964C13.9803 25.9264 14.4134 26.3681 14.8898 26.3681ZM14.8898 19.0362H17.6614C18.1811 19.0362 18.6142 18.5946 18.6142 18.0646C18.6142 17.5345 18.1811 17.0929 17.6614 17.0929H14.8898C14.3701 17.0929 13.937 17.5345 13.937 18.0646C13.9803 18.5946 14.4134 19.0362 14.8898 19.0362ZM19.2638 36.1291H20.7362C21.2559 36.1291 21.689 35.6874 21.689 35.1574C21.689 34.6274 21.2559 34.1857 20.7362 34.1857H19.2638C18.7441 34.1857 18.311 34.6274 18.311 35.1574C18.3543 35.6874 18.7874 36.1291 19.2638 36.1291ZM10.8622 3.93092H29.1378V3.18007C29.1378 2.82673 29.0079 2.47339 28.7913 2.25255C28.6181 2.03171 28.3583 1.89921 28.0551 1.89921H11.9449C11.685 1.89921 11.4252 2.03171 11.2087 2.25255C10.9921 2.47339 10.8622 2.82673 10.8622 3.18007V3.93092ZM29.1378 5.83012H10.8622V31.1823H29.1378V5.83012V5.83012ZM29.1378 33.0815H10.8622V35.8199C10.8622 36.1733 10.9921 36.5266 11.2087 36.7474C11.3819 36.9683 11.6417 37.1008 11.9449 37.1008H28.0984C28.3583 37.1008 28.6181 36.9683 28.8346 36.7474C29.0079 36.5266 29.1378 36.2174 29.1378 35.8199V33.0815Z" fill="#2A43B3"/>
</svg>
