<svg width="80" height="80" viewBox="0 0 80 80" fill="none" xmlns="http://www.w3.org/2000/svg">
<g clip-path="url(#clip0)">
<path fill-rule="evenodd" clip-rule="evenodd" d="M23.4211 33.8097H8.98044V73.0821H23.4211V33.8097ZM14.2568 62.1679C14.2568 61.0485 15.1825 60.209 16.2934 60.209C17.4042 60.209 18.3299 61.1418 18.3299 62.1679V66.8321C18.3299 67.9515 17.4042 68.791 16.2934 68.791C15.09 68.791 14.2568 67.9515 14.2568 66.8321V62.1679ZM24.2542 29.7985L36.751 5.63806C37.3064 4.51866 38.1395 3.58582 39.1578 2.93284C40.176 2.37313 41.3794 2 42.5828 2H44.4342C45.4524 2 46.3781 2.18657 47.2112 2.5597L47.3963 2.65299C48.2295 3.02612 48.8774 3.58582 49.5254 4.33209L49.618 4.42537C50.1734 5.17164 50.6362 5.91791 50.9139 6.75746C51.1917 7.6903 51.2842 8.62313 51.0991 9.64925L48.322 29.7985H69.3351C71.1864 29.7985 72.8527 30.5448 74.0561 31.7575L74.1486 31.8507C75.2594 33.0634 76 34.7425 76 36.5149V55.0784C76 61.1418 73.5932 66.5522 69.6128 70.5634C65.7249 74.5746 60.2634 77 54.2464 77H25.4576C25.3651 77 25.2725 77 25.1799 77H7.03651C5.92568 77 5 76.1605 5 75.041V31.7575C5 30.6381 5.92568 29.7985 7.03651 29.7985H24.2542ZM40.2686 7.50373L27.4016 32.3172V73.0821H54.2464C59.1525 73.0821 63.5958 71.0299 66.7432 67.8582C70.0756 64.5 72.0196 60.0224 72.0196 55.0784V36.5149C72.0196 35.7687 71.7418 35.1157 71.279 34.6493C70.7236 34.0896 70.0756 33.8097 69.3351 33.8097H46.0078C45.9153 33.8097 45.8227 33.8097 45.7301 33.8097C44.6193 33.6231 43.8787 32.6903 44.0639 31.5709L47.1186 9.18284C47.2112 8.8097 47.1186 8.34328 47.0261 8.06343C47.0261 7.59701 46.8409 7.31716 46.5632 7.03731L46.4707 6.94403C46.2855 6.66418 46.0078 6.47761 45.6375 6.29105H45.545C45.2673 6.10448 44.897 6.01119 44.5267 6.01119H42.6754C42.1199 6.01119 41.6571 6.10448 41.2868 6.38433C40.824 6.66418 40.4537 7.03731 40.2686 7.50373Z" fill="#212121"/>
</g>
<defs>
<clipPath id="clip0">
<rect width="80" height="80" fill="white"/>
</clipPath>
</defs>
</svg>
