<svg width="40" height="40" viewBox="0 0 40 40" fill="none" xmlns="http://www.w3.org/2000/svg">
<path fill-rule="evenodd" clip-rule="evenodd" d="M11.9449 0H28.0984C28.9213 0 29.6575 0.353341 30.1772 0.971687C30.6968 1.54587 31 2.34088 31 3.18007V4.85844V32.1099V35.8199C31 36.6591 30.6968 37.4541 30.1772 38.0283C29.6575 38.6467 28.9213 39 28.0984 39H11.9449C11.122 39 10.3858 38.6467 9.86614 38.0283C9.30315 37.4983 9 36.7033 9 35.8199V32.1099V4.85844V3.18007C9 2.34088 9.30315 1.54587 9.82283 0.971687C10.3425 0.353341 11.122 0 11.9449 0ZM19.2638 36.1291H20.7362C21.2559 36.1291 21.689 35.6874 21.689 35.1574C21.689 34.6274 21.2559 34.1857 20.7362 34.1857H19.2638C18.7441 34.1857 18.311 34.6274 18.311 35.1574C18.3543 35.6874 18.7874 36.1291 19.2638 36.1291ZM10.8622 3.93092H29.1378V3.18007C29.1378 2.82673 29.0079 2.47339 28.7913 2.25255C28.6181 2.03171 28.3583 1.89921 28.0551 1.89921H11.9449C11.685 1.89921 11.4252 2.03171 11.2087 2.25255C10.9921 2.47339 10.8622 2.82673 10.8622 3.18007V3.93092ZM29.1378 5.83012H10.8622V31.1823H29.1378V5.83012ZM29.1378 33.0815H10.8622V35.8199C10.8622 36.1733 10.9921 36.5266 11.2087 36.7474C11.3819 36.9683 11.6417 37.1008 11.9449 37.1008H28.0984C28.3583 37.1008 28.6181 36.9683 28.8346 36.7474C29.0079 36.5266 29.1378 36.2174 29.1378 35.8199V33.0815Z" fill="#2A43B3"/>
<path d="M13.25 18.25H14.75V19.75H13.25V18.25ZM19.25 13.75H20.75V16.75H19.25V13.75ZM17.75 18.25H20.75V21.25H19.25V19.75H17.75V18.25ZM22.25 18.25H23.75V19.75H25.25V18.25H26.75V19.75H25.25V21.25H26.75V24.25H25.25V25.75H23.75V24.25H20.75V25.75H19.25V22.75H22.25V21.25H23.75V19.75H22.25V18.25ZM25.25 24.25V21.25H23.75V24.25H25.25ZM22.25 12.25H26.75V16.75H22.25V12.25ZM23.75 13.75V15.25H25.25V13.75H23.75ZM13.25 12.25H17.75V16.75H13.25V12.25ZM14.75 13.75V15.25H16.25V13.75H14.75ZM13.25 21.25H17.75V25.75H13.25V21.25ZM14.75 22.75V24.25H16.25V22.75H14.75Z" fill="#2A43B3"/>
</svg>
