<svg width="70" height="74" viewBox="0 0 70 74" fill="none" xmlns="http://www.w3.org/2000/svg">
<g clip-path="url(#clip0)">
<path fill-rule="evenodd" clip-rule="evenodd" d="M34.0933 53.9663H14.1451H14.0544H5.44042C3.98964 53.9663 2.53886 53.3316 1.63212 52.3342C0.634715 51.3368 0 49.9767 0 48.4353V6.36272C0 4.91194 0.634715 3.46116 1.63212 2.55443C2.62953 1.55702 3.98964 0.922302 5.44042 0.922302H14.0544H64.5596C66.101 0.922302 67.4611 1.55702 68.4586 2.55443C69.456 3.55184 70 4.91194 70 6.36272V48.4353C70 49.9767 69.3653 51.3368 68.3679 52.2435C67.4611 53.3316 66.101 53.9663 64.5596 53.9663H64.2876C64.3782 54.4197 64.3782 54.8731 64.3782 55.3265V71.6477C64.3782 72.7358 63.4715 73.6425 62.3834 73.6425H35.9974C35.7254 73.6425 35.3627 73.5518 35.0907 73.4612L19.6762 65.4819C18.8601 64.9378 18.2254 64.3938 17.772 63.5777C17.3187 62.8524 17.1373 62.0363 17.1373 61.1296V59.9508C17.1373 59.2254 17.3187 58.5907 17.5907 57.956C17.772 57.4119 18.1347 56.8679 18.5881 56.4145L18.6788 56.3239C19.3135 55.8705 19.8575 55.5078 20.5829 55.3265C21.2176 55.1451 21.943 55.0544 22.6684 55.1451L34.0933 56.7772V53.9663ZM9.88342 28.9404V25.9482C9.88342 24.8601 8.97668 23.9534 7.8886 23.9534C6.80052 23.9534 5.89378 24.8601 5.89378 25.9482V28.9404C5.89378 30.0285 6.80052 30.9353 7.8886 30.9353C9.06736 30.8446 9.88342 30.0285 9.88342 28.9404ZM30.013 25.4948H22.9404C21.8523 25.4948 20.9456 26.4016 20.9456 27.4897C20.9456 28.5777 21.8523 29.4845 22.9404 29.4845H29.9223C31.0104 29.4845 31.9171 28.5777 31.9171 27.4897C31.9171 26.3109 31.101 25.4948 30.013 25.4948ZM34.3653 18.6943L29.4689 13.798C28.7435 13.0726 27.4741 13.0726 26.7487 13.798C26.0233 14.5233 26.0233 15.7928 26.7487 16.5182L31.7358 21.4145C32.4611 22.1399 33.7306 22.1399 34.456 21.4145C35.1813 20.7798 35.1813 19.5104 34.3653 18.6943ZM42.2539 17.0622V10.0803C42.2539 8.99225 41.3472 8.08552 40.2591 8.08552C39.171 8.08552 38.2642 8.99225 38.2642 10.0803V17.0622C38.3549 18.1503 39.2617 19.057 40.2591 19.057C41.3472 19.057 42.2539 18.1503 42.2539 17.0622ZM50.6865 29.3938H57.6684C58.7565 29.3938 59.6632 28.4871 59.6632 27.399C59.6632 26.3109 58.7565 25.4042 57.6684 25.4042H50.6865C49.5984 25.4042 48.6917 26.3109 48.6917 27.399C48.6917 28.4871 49.5984 29.3938 50.6865 29.3938ZM48.9637 21.5052L53.8601 16.6088C54.5855 15.8834 54.5855 14.614 53.8601 13.8886C53.1347 13.1632 51.8653 13.1632 51.1399 13.8886L46.2435 18.6943C45.5181 19.4197 45.5181 20.6891 46.2435 21.4145C46.9689 22.2306 48.2383 22.2306 48.9637 21.5052ZM60.1166 52.5156C59.5725 50.7928 58.6658 49.342 57.4871 48.0726C55.5829 46.2591 53.044 45.0803 50.2332 45.0803H44.6114C43.5233 45.0803 42.6166 44.1736 42.6166 43.0855V27.8524C42.6166 27.2176 42.3446 26.5829 41.9819 26.2202C41.5285 25.7669 40.9845 25.5855 40.2591 25.5855C39.6244 25.5855 39.0803 25.8575 38.6269 26.3109V26.3109C38.1736 26.6736 37.9922 27.3083 37.9922 27.8524V51.9715V58.9534C37.9922 60.0415 37.0855 60.9482 35.9974 60.9482C35.8161 60.9482 35.7254 60.9482 35.6347 60.9482L22.0337 59.0441C21.8523 59.0441 21.7617 59.0441 21.671 59.0441C21.5803 59.0441 21.399 59.1347 21.3083 59.2254L21.2176 59.3161C21.2176 59.4068 21.1269 59.4974 21.1269 59.5881C21.0363 59.6788 21.0363 59.7695 21.0363 59.9508V61.1296C21.0363 61.3109 21.0363 61.4923 21.1269 61.5829C21.2176 61.6736 21.3083 61.8549 21.4896 61.9456L36.4508 69.7436H60.3886V55.3265C60.4793 54.329 60.2979 53.4223 60.1166 52.5156ZM63.3808 49.9767H64.6503C65.1036 49.9767 65.4663 49.7954 65.7383 49.5233C66.0104 49.2513 66.1917 48.8886 66.1917 48.4353V6.36272C66.1917 5.90935 66.0104 5.54665 65.7383 5.27463C65.3757 5.00261 65.013 4.82127 64.5596 4.82127H16.0492V49.9767H34.0933V27.8524C34.0933 26.2202 34.728 24.6788 35.8161 23.5907L35.9067 23.5C36.9948 22.4119 38.6269 21.6866 40.3497 21.6866C42.0725 21.6866 43.614 22.4119 44.7021 23.5C45.7902 24.5881 46.5155 26.2202 46.5155 27.943V41.272H50.2332C54.1321 41.272 57.6684 42.8135 60.2073 45.443C61.5674 46.6218 62.6554 48.2539 63.3808 49.9767ZM12.1503 4.82127H5.44042C4.98705 4.82127 4.62435 5.00261 4.35233 5.27463C4.08031 5.54665 3.89896 5.90935 3.89896 6.36272V48.4353C3.89896 48.8886 4.08031 49.2513 4.35233 49.5233C4.62435 49.886 4.98705 49.9767 5.44042 49.9767H12.0596V4.82127H12.1503Z" fill="#F05123"/>
</g>
<defs>
<clipPath id="clip0">
<rect width="70" height="72.7202" fill="white" transform="translate(0 0.922302)"/>
</clipPath>
</defs>
</svg>
