<svg width="24" height="24" viewBox="0 0 24 24" fill="none" xmlns="http://www.w3.org/2000/svg">
<path d="M23.64 6.99994C23.19 6.65994 18.71 2.99994 12 2.99994C10.5 2.99994 9.10999 3.18994 7.84999 3.47994L18.18 13.7999L23.64 6.99994ZM17.04 15.2199L3.26999 1.43994L1.99999 2.71994L4.04999 4.77994C1.90999 5.75994 0.589985 6.81994 0.359985 6.99994L11.99 21.4899L12 21.4999L12.01 21.4899L15.91 16.6299L19.23 19.9499L20.5 18.6799L17.04 15.2199Z" fill="#F05123"/>
</svg>
